<svg width="24" height="30" viewBox="0 0 24 30" fill="none" xmlns="http://www.w3.org/2000/svg">
<path d="M20.335 0H3.6683C1.83496 0 0.351628 1.5 0.351628 3.33333L0.334961 30L12.0017 25L23.6683 30V3.33333C23.6683 1.5 22.1683 0 20.335 0ZM20.335 25L12.0017 21.3667L3.6683 25V3.33333H20.335V25Z" fill="black"/>
</svg>
