<svg width="20" height="21" viewBox="0 0 30 31" fill="none" xmlns="http://www.w3.org/2000/svg">
<path d="M9.25 16.1875L13.375 20.3125L20.25 12.0625" stroke="#F17930" stroke-width="2" stroke-linecap="round" stroke-linejoin="round"/>
<path d="M14.75 29.25C22.3439 29.25 28.5 23.0939 28.5 15.5C28.5 7.90608 22.3439 1.75 14.75 1.75C7.15608 1.75 1 7.90608 1 15.5C1 23.0939 7.15608 29.25 14.75 29.25Z" stroke="#F17930" stroke-width="2"/>
</svg>
